<svg width="21" height="17" viewBox="0 0 21 17" fill="none" xmlns="http://www.w3.org/2000/svg">
<path d="M17.876 6.67725H2.08264C0.932432 6.67725 0 7.48266 0 8.47619C0 9.46972 0.932432 10.2751 2.08264 10.2751H17.876C19.0262 10.2751 19.9587 9.46972 19.9587 8.47619C19.9587 7.48266 19.0262 6.67725 17.876 6.67725Z" fill="white"/>
<path d="M19.3398 7.1814L13.0811 1.77522C12.2677 1.07269 10.9491 1.07269 10.1357 1.77522C9.32242 2.47775 9.32242 3.61677 10.1357 4.31931L16.3945 9.72549C17.2078 10.428 18.5265 10.428 19.3398 9.72549C20.1531 9.02296 20.1531 7.88394 19.3398 7.1814Z" fill="white"/>
<path d="M16.4092 7.1997L10.1504 12.6059C9.33706 13.3084 9.33706 14.4474 10.1504 15.15C10.9637 15.8525 12.2824 15.8525 13.0957 15.15L19.3545 9.74379C20.1678 9.04126 20.1678 7.90223 19.3545 7.1997C18.5411 6.49717 17.2225 6.49717 16.4092 7.1997Z" fill="white"/>
</svg>
