<svg width="16" height="20" viewBox="0 0 16 20" fill="none" xmlns="http://www.w3.org/2000/svg">
<g clip-path="url(#clip0)">
<path d="M13.8631 7.87343L5.7364 0.871016C4.68033 -0.0389434 2.96811 -0.0389434 1.91204 0.871016C0.855976 1.78098 0.855976 3.25631 1.91204 4.16627L10.0388 11.1687C11.0949 12.0786 12.8071 12.0786 13.8631 11.1687C14.9192 10.2587 14.9192 8.78339 13.8631 7.87343Z" fill="#010101"/>
<path d="M10.0575 7.89683L1.93073 14.8992C0.874665 15.8092 0.874665 17.2845 1.93073 18.1945C2.9868 19.1045 4.69902 19.1045 5.75508 18.1945L13.8818 11.1921C14.9379 10.2821 14.9379 8.80679 13.8818 7.89683C12.8258 6.98687 11.1135 6.98687 10.0575 7.89683Z" fill="#010101"/>
</g>
<defs>
<clipPath id="clip0">
<rect width="16" height="20" fill="white"/>
</clipPath>
</defs>
</svg>
