<svg width="34" height="26" viewBox="0 0 34 26" fill="none" xmlns="http://www.w3.org/2000/svg">
<path d="M2.60689 13.7856C2.20975 12.1482 3.58215 10.5972 5.42816 10.5972H28.4418C30.329 10.5972 31.7095 12.214 31.2398 13.8742L28.6413 23.0581C28.313 24.2179 27.1618 25.0289 25.8433 25.0289H7.65539C6.29941 25.0289 5.1259 24.1723 4.83418 22.9695L2.60689 13.7856Z" fill="black"/>
<path d="M11.3415 15.5055C11.2494 14.9686 10.7004 14.6248 10.1152 14.7378C9.52997 14.8508 9.13015 15.3777 9.22215 15.9147L10.2164 21.7161C10.3084 22.2531 10.8574 22.5968 11.4427 22.4838C12.0279 22.3708 12.4277 21.8439 12.3357 21.307L11.3415 15.5055Z" fill="#FAC282"/>
<path d="M17.7223 15.5172C17.7223 14.9737 17.2373 14.5332 16.639 14.5332C16.0407 14.5332 15.5557 14.9737 15.5557 15.5172V21.4211C15.5557 21.9645 16.0407 22.4051 16.639 22.4051C17.2373 22.4051 17.7223 21.9645 17.7223 21.4211V15.5172Z" fill="#FAC282"/>
<path d="M2.55534 9.2854C1.3587 9.2854 0.388672 10.1665 0.388672 11.2533C0.388672 12.3402 1.3587 13.2213 2.55534 13.2213H31.4442C32.6409 13.2213 33.6109 12.3402 33.6109 11.2533C33.6109 10.1665 32.6409 9.2854 31.4442 9.2854H2.55534Z" fill="black"/>
<path d="M23.8914 15.9146C23.9834 15.3777 23.5836 14.8508 22.9983 14.7378C22.4131 14.6248 21.8641 14.9685 21.7721 15.5055L20.7778 21.3069C20.6858 21.8439 21.0856 22.3708 21.6709 22.4838C22.2561 22.5968 22.8051 22.253 22.8971 21.7161L23.8914 15.9146Z" fill="#FAC282"/>
<path d="M17.9927 2.79353C18.4277 2.20761 18.2702 1.39572 17.6409 0.980118C17.0116 0.564513 16.1489 0.702612 15.7139 1.28853L10.1374 8.80039C9.70249 9.38631 9.85997 10.1983 10.4892 10.6139C11.1185 11.0295 11.9813 10.8914 12.4162 10.3054L17.9927 2.79353Z" fill="#4E4E4E"/>
<path d="M18.0525 1.16231C17.6175 0.576391 16.7548 0.438293 16.1255 0.853897C15.4962 1.2695 15.3387 2.08145 15.7737 2.66737L21.4436 10.3052C21.8786 10.8912 22.7414 11.0293 23.3707 10.6137C23.9999 10.198 24.1574 9.38609 23.7224 8.80017L18.0525 1.16231Z" fill="#4E4E4E"/>
</svg>
