<svg width="71" height="80" viewBox="0 0 71 80" fill="none" xmlns="http://www.w3.org/2000/svg">
<g clip-path="url(#clip0)">
<path d="M4.33808 9.37705C5.53076 9.21688 7.34063 10.0312 7.34063 10.0312C7.34063 10.0312 7.92628 8.26911 8.8696 7.58415C11.3223 5.8033 12.0624 14.3036 12.0624 14.3036L7.53084 16.0965C7.53084 16.0965 1.2371 9.79345 4.33808 9.37705Z" fill="#5AB14C"/>
<path d="M6.31068 22.0416C4.70939 19.4218 5.937 16.113 8.95305 14.9197L10.1949 14.4284C13.1942 13.2417 16.6625 14.6627 17.6837 17.4964L26.3852 41.6424C26.9611 43.2407 26.1073 44.976 24.4158 45.6453C22.7346 46.3104 20.7746 45.7049 19.882 44.2446L6.31068 22.0416Z" fill="#FAA353"/>
<path d="M9.07952 17.94L6.81375 18.8364C6.50092 18.9602 6.35727 19.292 6.49291 19.5774C6.62855 19.8629 6.99211 19.994 7.30495 19.8702L9.57071 18.9738C9.88354 18.85 10.0272 18.5182 9.89155 18.2328C9.75591 17.9473 9.39235 17.8162 9.07952 17.94Z" fill="#FFBF85"/>
<path d="M16.2926 17.5425L14.5933 18.2149C14.2805 18.3386 14.1368 18.6704 14.2725 18.9559C14.4081 19.2413 14.7717 19.3724 15.0845 19.2486L16.7838 18.5763C17.0966 18.4525 17.2403 18.1208 17.1047 17.8353C16.969 17.5498 16.6055 17.4187 16.2926 17.5425Z" fill="#FFBF85"/>
<path d="M13.3101 21.1788L9.345 22.7476C9.03217 22.8713 8.88852 23.2031 9.02416 23.4886C9.1598 23.774 9.52336 23.9051 9.8362 23.7813L13.8013 22.2126C14.1141 22.0888 14.2578 21.757 14.1221 21.4716C13.9865 21.1861 13.6229 21.055 13.3101 21.1788Z" fill="#FFBF85"/>
<path d="M17.9365 22.4185L15.1043 23.5391C14.7914 23.6628 14.6478 23.9946 14.7834 24.2801C14.9191 24.5655 15.2826 24.6966 15.5955 24.5728L18.4277 23.4523C18.7405 23.3285 18.8842 22.9968 18.7485 22.7113C18.6129 22.4258 18.2493 22.2948 17.9365 22.4185Z" fill="#FFBF85"/>
<path d="M14.9538 26.0548L12.1216 27.1753C11.8088 27.2991 11.6651 27.6308 11.8008 27.9163C11.9364 28.2018 12.3 28.3328 12.6128 28.2091L15.445 27.0885C15.7578 26.9648 15.9015 26.633 15.7659 26.3475C15.6302 26.0621 15.2667 25.931 14.9538 26.0548Z" fill="#FFBF85"/>
<path d="M68.0881 11.8034C69.5715 7.99168 67.3877 3.80441 63.2106 2.45084C59.0335 1.09728 54.4447 3.09 52.9614 6.9017L37.2598 47.2501C35.7765 51.0618 37.9602 55.2491 42.1374 56.6027C46.3145 57.9562 50.9032 55.9635 52.3865 52.1518L68.0881 11.8034Z" fill="#F0B26B"/>
<path d="M65.2421 7.2583H57.216C56.534 7.2583 55.9812 7.76277 55.9812 8.38506C55.9812 9.00735 56.534 9.51182 57.216 9.51182H65.2421C65.924 9.51182 66.4769 9.00735 66.4769 8.38506C66.4769 7.76277 65.924 7.2583 65.2421 7.2583Z" fill="#FFCD95"/>
<path d="M62.9694 13.0981H54.9433C54.2613 13.0981 53.7085 13.6026 53.7085 14.2249C53.7085 14.8472 54.2613 15.3517 54.9433 15.3517H62.9694C63.6513 15.3517 64.2041 14.8472 64.2041 14.2249C64.2041 13.6026 63.6513 13.0981 62.9694 13.0981Z" fill="#FFCD95"/>
<path d="M60.6967 18.938H52.6706C51.9886 18.938 51.4358 19.4425 51.4358 20.0647C51.4358 20.687 51.9886 21.1915 52.6706 21.1915H60.6967C61.3786 21.1915 61.9314 20.687 61.9314 20.0647C61.9314 19.4425 61.3786 18.938 60.6967 18.938Z" fill="#FFCD95"/>
<path d="M58.4339 24.8074L50.4081 24.7486C49.7262 24.7436 49.1689 25.244 49.1634 25.8662C49.1579 26.4885 49.7063 26.997 50.3882 27.002L58.4141 27.0608C59.096 27.0658 59.6532 26.5654 59.6587 25.9432C59.6642 25.3209 59.1158 24.8124 58.4339 24.8074Z" fill="#FFCD95"/>
<path d="M40.1305 23.6619H19.1392V54.0844H40.1305V23.6619Z" fill="#E3E1E1"/>
<path d="M19.1392 25.6339C19.1392 25.6339 22.0915 24.0103 24.0783 24.214C26.215 24.4331 27.4975 25.8513 29.6348 25.6339C31.7053 25.4233 32.5035 23.9132 34.5739 23.7026C36.7112 23.4852 40.1305 24.214 40.1305 24.214V53.5213H19.1392V25.6339Z" fill="#6FBFE1"/>
<path d="M19.1392 23.6619C19.1392 21.1218 20.245 18.6858 22.2133 16.8897C24.1816 15.0935 26.8512 14.0845 29.6348 14.0845C32.4184 14.0845 35.088 15.0935 37.0564 16.8897C39.0247 18.6858 40.1305 21.1218 40.1305 23.6619H29.6348H19.1392Z" fill="#E3E0E0"/>
<path d="M34.5738 11.8311H24.6956V15.7747H34.5738V11.8311Z" fill="#E3E0E0"/>
<path d="M33.9566 9.57739H25.3131C24.2902 9.57739 23.4609 10.3341 23.4609 11.2675C23.4609 12.201 24.2902 12.9577 25.3131 12.9577H33.9566C34.9795 12.9577 35.8088 12.201 35.8088 11.2675C35.8088 10.3341 34.9795 9.57739 33.9566 9.57739Z" fill="#C4C4C4"/>
<path d="M41.0427 19.0354C40.9077 18.0069 41.8111 17.1107 42.9456 17.1453C43.9367 17.1755 44.6825 17.98 44.551 18.8769L43.861 23.5798C43.7846 24.1005 43.2882 24.4837 42.7128 24.4662C42.1599 24.4493 41.7032 24.0669 41.6375 23.5658L41.0427 19.0354Z" fill="#5AB14C"/>
<path d="M52.2637 27.8245C53.5444 32.6365 50.382 35.5359 45.4118 36.6375C40.4416 37.7389 36.1846 36.5394 34.9039 31.7274C33.6232 26.9154 35.0645 20.6866 42.1408 23.1112C47.4273 18.1972 50.983 23.0125 52.2637 27.8245Z" fill="#ED6565"/>
<path d="M44.8362 22.8275C44.8402 22.5156 45.1213 22.2628 45.4609 22.2976C46.6265 22.4172 47.7354 22.838 48.654 23.516C49.5726 24.194 50.2552 25.0957 50.627 26.1108C50.7353 26.4067 50.5231 26.7103 50.1897 26.7791C49.8563 26.8478 49.5286 26.6551 49.4121 26.3619C49.1073 25.5939 48.5776 24.9124 47.8756 24.3942C47.1735 23.876 46.3325 23.5458 45.4458 23.4342C45.1071 23.3915 44.8322 23.1394 44.8362 22.8275Z" fill="#FFD1D1"/>
<path d="M8.682 30.771C8.65842 30.3442 8.90012 29.9429 9.31933 29.7524C10.5145 29.2095 13.0658 28.1705 15.0886 28.1705C17.1561 28.1705 19.7755 29.2558 20.9349 29.7876C21.312 29.9605 21.7575 29.9653 22.138 29.7989C23.3439 29.2713 26.1196 28.1705 28.2858 28.1705C30.4644 28.1705 33.2594 29.2839 34.4541 29.8078C34.8233 29.9697 35.2532 29.971 35.6235 29.8113C36.8615 29.2771 39.8178 28.1204 42.0968 28.1705C44.1606 28.2159 46.7766 29.2754 47.9386 29.7938C48.318 29.9631 48.765 29.9618 49.1434 29.7906C50.3043 29.2657 52.9215 28.1941 54.9871 28.1705C57.1042 28.1464 59.8042 29.2098 61.051 29.7576C61.4767 29.9446 61.7257 30.3477 61.7045 30.7784L59.3367 78.9239C59.3072 79.5256 58.7637 79.9999 58.1032 79.9999H12.5797C11.9219 79.9999 11.3796 79.5295 11.3465 78.9301L8.682 30.771Z" fill="#C09666"/>
<path d="M26.5479 63.0986H17.287C16.6051 63.0986 16.0522 63.6031 16.0522 64.2254C16.0522 64.8477 16.6051 65.3522 17.287 65.3522H26.5479C27.2298 65.3522 27.7827 64.8477 27.7827 64.2254C27.7827 63.6031 27.2298 63.0986 26.5479 63.0986Z" fill="#AA8B69"/>
<path d="M29.6349 68.1689H17.287C16.6051 68.1689 16.0522 68.6734 16.0522 69.2957C16.0522 69.918 16.6051 70.4225 17.287 70.4225H29.6349C30.3168 70.4225 30.8696 69.918 30.8696 69.2957C30.8696 68.6734 30.3168 68.1689 29.6349 68.1689Z" fill="#AA8B69"/>
<path d="M32.7218 73.2395H17.287C16.6051 73.2395 16.0522 73.744 16.0522 74.3663C16.0522 74.9886 16.6051 75.493 17.287 75.493H32.7218C33.4038 75.493 33.9566 74.9886 33.9566 74.3663C33.9566 73.744 33.4038 73.2395 32.7218 73.2395Z" fill="#AA8B69"/>
<path d="M33.6114 17.1697C33.697 16.8677 34.0362 16.6837 34.3569 16.7916C35.4573 17.1622 36.4237 17.8128 37.1378 18.6717C37.852 19.5306 38.2785 20.555 38.3732 21.6219C38.4008 21.9328 38.1152 22.1813 37.7734 22.1752C37.4317 22.1691 37.1641 21.9106 37.1279 21.6004C37.0332 20.7881 36.6976 20.0108 36.1518 19.3544C35.606 18.698 34.876 18.1938 34.0442 17.8918C33.7266 17.7765 33.5257 17.4717 33.6114 17.1697Z" fill="white"/>
</g>
<defs>
<clipPath id="clip0">
<rect width="71" height="80" fill="white"/>
</clipPath>
</defs>
</svg>
